# --> Including file '/build1/leggett/git/leggett/Gaudi/GaudiExamples/options/ROOT_IO/ExtCollWrite.py'
# <-- End of file '/build1/leggett/git/leggett/Gaudi/GaudiExamples/options/ROOT_IO/ExtCollWrite.py'
# applying configuration of GaudiPersistency
# /***** User GaudiPersistency/GaudiPersistency ******************************************************
# |-<no properties>
# \----- (End of User GaudiPersistency/GaudiPersistency) ---------------------------------------------
# Dumping all configurables and properties (different from default)
{'ApplicationMgr': {'EvtMax': -1,
                    'ExtSvc': ['TagCollectionSvc/EvtTupleSvc',
                               'FileRecordDataSvc/FileRecordDataSvc'],
                    'HistogramPersistency': 'NONE',
                    'SvcOptMapping': ['Gaudi::MultiFileCatalog/FileCatalog',
                                      'Gaudi::IODataManager/IODataManager',
                                      'Gaudi::RootCnvSvc/RootCnvSvc'],
                    'TopAlg': ['GaudiSequencer/EventAlgs']},
 'EventAlgs': {'Members': ['Gaudi::Examples::ExtendedEvtCol/Fill'],
               'VetoObjects': ['FSR']},
 'EventPersistencySvc': {'CnvServices': ['Gaudi::RootCnvSvc/RootCnvSvc']},
 'EventSelector': {'Input': ["DATAFILE='PFN:ROOTIO.dst'  SVC='Gaudi::RootEvtSelector' OPT='READ'",
                             "DATAFILE='PFN:ROOTIO.mdst' SVC='Gaudi::RootEvtSelector' OPT='READ'"],
                   'PrintFreq': 100},
 'EvtTupleSvc': {'Output': ["EXTEVT DATAFILE='PFN:ROOT_IO.etags' OPT='RECREATE' SVC='Gaudi::RootCnvSvc'"]},
 'FileCatalog': {'Catalogs': ['xmlcatalog_file:ROOTIO.xml']},
 'FileRecordPersistencySvc': {'CnvServices': ['Gaudi::RootCnvSvc/RootCnvSvc']},
 'Fill': {'EvtColLUN': 'EXTEVT'},
 'ToolSvc.SequencerTimerTool': {'OutputLevel': 4}}
ApplicationMgr    SUCCESS
====================================================================================================================================
                                                   Welcome to ApplicationMgr (GaudiCoreSvc v28r1)
                                          running on p05614910w96644.cern.ch on Wed Jan 18 01:43:37 2017
====================================================================================================================================
ApplicationMgr       INFO Application Manager Configured successfully
EvtTupleSvc          INFO Added stream file:PFN:ROOT_IO.etags as EXTEVT
EventAlgs            INFO Member list: Gaudi::Examples::ExtendedEvtCol/Fill
RndmGenSvc.Engine    INFO Generator engine type:CLHEP::RanluxEngine
RndmGenSvc.Engine    INFO Current Seed:1234567 Luxury:3
RndmGenSvc           INFO Using Random engine:HepRndm::Engine<CLHEP::RanluxEngine>
Fill              SUCCESS List of ALL properties of Gaudi::Examples::ExtendedEvtCol/Fill  #properties = 65
Fill              SUCCESS Property ['Name': Value] =  'Tracks':MyTracks
Fill              SUCCESS Property ['Name': Value] =  'EvtColDir':Fill
Fill              SUCCESS Property ['Name': Value] =  'EvtColTopDir':
Fill              SUCCESS Property ['Name': Value] =  'EvtColLUN':EXTEVT
Fill              SUCCESS Property ['Name': Value] =  'EvtColOffSet':0
Fill              SUCCESS Property ['Name': Value] =  'EvtColSplitDir':False
Fill              SUCCESS Property ['Name': Value] =  'EvtColsPrint':True
Fill              SUCCESS Property ['Name': Value] =  'EvtColsProduce':True
Fill              SUCCESS Property ['Name': Value] =  'NTupleDir':Fill
Fill              SUCCESS Property ['Name': Value] =  'NTupleTopDir':
Fill              SUCCESS Property ['Name': Value] =  'NTupleLUN':FILE1
Fill              SUCCESS Property ['Name': Value] =  'NTupleOffSet':0
Fill              SUCCESS Property ['Name': Value] =  'NTupleSplitDir':False
Fill              SUCCESS Property ['Name': Value] =  'NTuplePrint':False
Fill              SUCCESS Property ['Name': Value] =  'NTupleProduce':False
Fill              SUCCESS Property ['Name': Value] =  'AutoStringIDPurgeMap':{ '/' : '=SLASH=' }
Fill              SUCCESS Property ['Name': Value] =  'UseSequencialNumericAutoIDs':False
Fill              SUCCESS Property ['Name': Value] =  'HeaderFor1DHistoTable':|   Title                                       |    #    |     Mean   |    RMS     |  Skewness  |  Kurtosis  |
Fill              SUCCESS Property ['Name': Value] =  'ShortFormatFor1DHistoTable': | %1$-25.25s %2%
Fill              SUCCESS Property ['Name': Value] =  'FormatFor1DHistoTable':| %2$-45.45s | %3$=7d |%8$11.5g | %10$-11.5g|%12$11.5g |%14$11.5g |
Fill              SUCCESS Property ['Name': Value] =  'MonitorHistograms':True
Fill              SUCCESS Property ['Name': Value] =  'FullDetail':False
Fill              SUCCESS Property ['Name': Value] =  'HistoDir':Fill
Fill              SUCCESS Property ['Name': Value] =  'HistoTopDir':
Fill              SUCCESS Property ['Name': Value] =  'HistoOffSet':0
Fill              SUCCESS Property ['Name': Value] =  'HistoSplitDir':False
Fill              SUCCESS Property ['Name': Value] =  'HistoCheckForNaN':True
Fill              SUCCESS Property ['Name': Value] =  'HistoCountersPrint':True
Fill              SUCCESS Property ['Name': Value] =  'HistoPrint':False
Fill              SUCCESS Property ['Name': Value] =  'HistoProduce':True
Fill              SUCCESS Property ['Name': Value] =  'RequireObjects':[  ]
Fill              SUCCESS Property ['Name': Value] =  'VetoObjects':[  ]
Fill              SUCCESS Property ['Name': Value] =  'StatEntityList':[  ]
Fill              SUCCESS Property ['Name': Value] =  'CounterList':[ '.*' ]
Fill              SUCCESS Property ['Name': Value] =  'UseEfficiencyRowFormat':True
Fill              SUCCESS Property ['Name': Value] =  'EfficiencyRowFormat': |*%|-48.48s|%|50t||%|10d| |%|11.5g| |(%|#9.6g| +- %|-#9.6g|)%%|   -------   |   -------   |
Fill              SUCCESS Property ['Name': Value] =  'RegularRowFormat': | %|-48.48s|%|50t||%|10d| |%|11.7g| |%|#11.5g| |%|#11.5g| |%|#12.5g| |%|#12.5g| |
Fill              SUCCESS Property ['Name': Value] =  'StatTableHeader': |    Counter                                      |     #     |    sum     | mean/eff^* | rms/err^*  |     min     |     max     |
Fill              SUCCESS Property ['Name': Value] =  'RootInTES':
Fill              SUCCESS Property ['Name': Value] =  'Context':
Fill              SUCCESS Property ['Name': Value] =  'TypePrint':False
Fill              SUCCESS Property ['Name': Value] =  'StatPrint':True
Fill              SUCCESS Property ['Name': Value] =  'PropertiesPrint':True
Fill              SUCCESS Property ['Name': Value] =  'ErrorsPrint':True
Fill              SUCCESS Property ['Name': Value] =  'IsIOBound':False
Fill              SUCCESS Property ['Name': Value] =  'NeededResources':[  ]
Fill              SUCCESS Property ['Name': Value] =  'Cardinality':1
Fill              SUCCESS Property ['Name': Value] =  'RegisterForContextService':True
Fill              SUCCESS Property ['Name': Value] =  'MonitorService':MonitorSvc
Fill              SUCCESS Property ['Name': Value] =  'Timeline':False
Fill              SUCCESS Property ['Name': Value] =  'AuditStop':False
Fill              SUCCESS Property ['Name': Value] =  'AuditStart':False
Fill              SUCCESS Property ['Name': Value] =  'AuditEndRun':False
Fill              SUCCESS Property ['Name': Value] =  'AuditBeginRun':False
Fill              SUCCESS Property ['Name': Value] =  'AuditFinalize':False
Fill              SUCCESS Property ['Name': Value] =  'AuditExecute':False
Fill              SUCCESS Property ['Name': Value] =  'AuditRestart':False
Fill              SUCCESS Property ['Name': Value] =  'AuditReinitialize':False
Fill              SUCCESS Property ['Name': Value] =  'AuditInitialize':False
Fill              SUCCESS Property ['Name': Value] =  'AuditAlgorithms':False
Fill              SUCCESS Property ['Name': Value] =  'ErrorMax':1
Fill              SUCCESS Property ['Name': Value] =  'Enable':True
Fill              SUCCESS Property ['Name': Value] =  'OutputLevel':3
Fill              SUCCESS Property ['Name': Value] =  'ExtraOutputs':[]
Fill              SUCCESS Property ['Name': Value] =  'ExtraInputs':[]
HistogramPersis...WARNING Histograms saving not required.
EventPersistenc...   INFO Added successfully Conversion service:RootCnvSvc
EventSelector        INFO Stream:EventSelector.DataStreamTool_1 Def:DATAFILE='PFN:ROOTIO.dst'  SVC='Gaudi::RootEvtSelector' OPT='READ'
ApplicationMgr       INFO Application Manager Initialized successfully
ApplicationMgr       INFO Application Manager Started successfully
FileRecordPersi...   INFO Added successfully Conversion service:RootCnvSvc
EventSelector     SUCCESS Reading Event record 1. Record number within stream 1: 1
Gaudi::RootData...   INFO Recreate Database file:PFN:ROOT_IO.etags as /EXTEVT
EventSelector     SUCCESS Reading Event record 101. Record number within stream 1: 101
EventSelector     SUCCESS Reading Event record 201. Record number within stream 1: 201
EventSelector     SUCCESS Reading Event record 301. Record number within stream 1: 301
EventSelector     SUCCESS Reading Event record 401. Record number within stream 1: 401
EventSelector     SUCCESS Reading Event record 501. Record number within stream 1: 501
EventSelector     SUCCESS Reading Event record 601. Record number within stream 1: 601
EventSelector     SUCCESS Reading Event record 701. Record number within stream 1: 701
EventSelector     SUCCESS Reading Event record 801. Record number within stream 1: 801
EventSelector     SUCCESS Reading Event record 901. Record number within stream 1: 901
EventSelector        INFO Stream:EventSelector.DataStreamTool_2 Def:DATAFILE='PFN:ROOTIO.mdst' SVC='Gaudi::RootEvtSelector' OPT='READ'
EventSelector     SUCCESS Reading Event record 1001. Record number within stream 2: 1
EventSelector     SUCCESS Reading Event record 1101. Record number within stream 2: 101
EventSelector     SUCCESS Reading Event record 1201. Record number within stream 2: 201
EventSelector     SUCCESS Reading Event record 1301. Record number within stream 2: 301
EventSelector     SUCCESS Reading Event record 1401. Record number within stream 2: 401
EventSelector     SUCCESS Reading Event record 1501. Record number within stream 2: 501
EventSelector     SUCCESS Reading Event record 1601. Record number within stream 2: 601
EventSelector     SUCCESS Reading Event record 1701. Record number within stream 2: 701
EventSelector     SUCCESS Reading Event record 1801. Record number within stream 2: 801
EventSelector     SUCCESS Reading Event record 1901. Record number within stream 2: 901
EventLoopMgr         INFO No more events in event selection
ApplicationMgr       INFO Application Manager Stopped successfully
Fill              SUCCESS Booked 0 N-Tuples and 1 Event Tag Collections
Fill              SUCCESS List of booked Event Tag Collections in directory "EXTEVT/Fill"
Fill              SUCCESS  ID=MyCOL1        Title="Trivial Event Tag Collection"            #items=8  {Address,Ntrack,TrkMom[1]/V,px[1]/V,py[1]/V,pz[1]/V,Energy,Track} Items:{ 'Address' : 'IOpaqueAddress*' , 'Energy' : 'D' , 'Ntrack' : 'I' , 'Track' : 'Gaudi::Examples::MyTrack*' , 'TrkMom' : 'FArray' , 'px' : 'FArray' , 'py' : 'FArray' , 'pz' : 'FArray' }
EventLoopMgr         INFO Histograms converted successfully according to request.
RootCnvSvc           INFO Disconnected data IO:3E8CCA3C-FFDC-E611-83AB-001E67ABF0AC [ROOTIO.dst]
RootCnvSvc           INFO Disconnected data IO:A856E63C-FFDC-E611-83AB-001E67ABF0AC [ROOTIO.mdst]
ToolSvc              INFO Removing all tools created by ToolSvc
EvtTupleSvc          INFO NTuples saved successfully
EvtTupleSvc.EXTEVT   INFO Disconnected data IO:B86B1DA4-FFDC-E611-A3F7-001E67ABF0AC [ROOT_IO.etags]
ApplicationMgr       INFO Application Manager Finalized successfully
ApplicationMgr       INFO Application Manager Terminated successfully
Number of MyTrack instances:18
